<?xml version="1.0" encoding="UTF-8"?>
<glyph name="aacute" format="1">
  <advance width="540"/>
  <unicode hex="00E1"/>
  <outline>
    <component base="a" xOffset="-7"/>
    <component base="acute" xOffset="-49"/>
  </outline>
</glyph>
