<?xml version="1.0" encoding="UTF-8"?>
<glyph name="dcaron" format="1">
  <advance width="563"/>
  <unicode hex="010F"/>
  <outline>
    <contour>
      <point x="532" y="0" type="line"/>
      <point x="432" y="0" type="line"/>
      <point x="432" y="35" type="line"/>
      <point x="360" y="-14"/>
      <point x="281" y="-14" type="qcurve" smooth="yes"/>
      <point x="172" y="-14"/>
      <point x="104" y="51" type="qcurve" smooth="yes"/>
      <point x="34" y="119"/>
      <point x="34" y="319"/>
      <point x="104" y="386" type="qcurve" smooth="yes"/>
      <point x="172" y="451"/>
      <point x="282" y="451" type="qcurve" smooth="yes"/>
      <point x="369" y="451"/>
      <point x="432" y="401" type="qcurve"/>
      <point x="432" y="624" type="line"/>
      <point x="532" y="624" type="line"/>
      <point x="532" y="495" type="line"/>
      <point x="608" y="611" type="line" smooth="yes"/>
      <point x="625" y="637"/>
      <point x="646" y="637" type="qcurve" smooth="yes"/>
      <point x="661" y="637"/>
      <point x="682" y="616"/>
      <point x="682" y="600" type="qcurve" smooth="yes"/>
      <point x="682" y="590"/>
      <point x="669" y="570" type="qcurve" smooth="yes"/>
      <point x="587" y="445" type="line" smooth="yes"/>
      <point x="569" y="419"/>
      <point x="550" y="419" type="qcurve" smooth="yes"/>
      <point x="543" y="419"/>
      <point x="532" y="423" type="qcurve"/>
    </contour>
    <contour>
      <point x="282" y="351" type="qcurve" smooth="yes"/>
      <point x="213" y="351"/>
      <point x="173" y="311" type="qcurve" smooth="yes"/>
      <point x="134" y="272"/>
      <point x="134" y="219" type="qcurve" smooth="yes"/>
      <point x="134" y="167"/>
      <point x="173" y="126" type="qcurve"/>
      <point x="214" y="86"/>
      <point x="352" y="86"/>
      <point x="393" y="126" type="qcurve" smooth="yes"/>
      <point x="432" y="165"/>
      <point x="432" y="217" type="qcurve" smooth="yes"/>
      <point x="432" y="272"/>
      <point x="393" y="311" type="qcurve" smooth="yes"/>
      <point x="352" y="351"/>
    </contour>
  </outline>
</glyph>
