<?xml version="1.0" encoding="UTF-8"?>
<glyph name="igrave" format="1">
  <advance width="306"/>
  <unicode hex="00EC"/>
  <outline>
    <component base="dotlessi" xOffset="-121"/>
    <component base="grave" xOffset="-108"/>
  </outline>
</glyph>
