<?xml version="1.0" encoding="UTF-8"?>
<glyph name="OSP_frog" format="1">
  <advance width="1034"/>
  <unicode hex="E000"/>
  <outline>
    <contour>
      <point x="692" y="461" type="line"/>
      <point x="692" y="427" type="line"/>
      <point x="736" y="427" type="line"/>
      <point x="736" y="461" type="line"/>
    </contour>
    <contour>
      <point x="650" y="604" type="line"/>
      <point x="669" y="563" type="line"/>
      <point x="706" y="582" type="line"/>
      <point x="719" y="521" type="line"/>
      <point x="785" y="521" type="line"/>
      <point x="813" y="431" type="line"/>
      <point x="728" y="295" type="line"/>
      <point x="815" y="184" type="line"/>
      <point x="902" y="210" type="line"/>
      <point x="912" y="193" type="line"/>
      <point x="878" y="181" type="line"/>
      <point x="878" y="171" type="line"/>
      <point x="941" y="180" type="line"/>
      <point x="944" y="161" type="line"/>
      <point x="879" y="154" type="line"/>
      <point x="879" y="147" type="line"/>
      <point x="927" y="137" type="line"/>
      <point x="916" y="122" type="line"/>
      <point x="868" y="131" type="line"/>
      <point x="779" y="116" type="line"/>
      <point x="686" y="201" type="line"/>
      <point x="626" y="131" type="line"/>
      <point x="692" y="65" type="line"/>
      <point x="840" y="69" type="line"/>
      <point x="842" y="42" type="line"/>
      <point x="760" y="44" type="line"/>
      <point x="751" y="35" type="line"/>
      <point x="863" y="20" type="line"/>
      <point x="855" y="-3" type="line"/>
      <point x="732" y="14" type="line"/>
      <point x="728" y="10" type="line"/>
      <point x="798" y="-16" type="line"/>
      <point x="787" y="-37" type="line"/>
      <point x="662" y="-3" type="line"/>
      <point x="563" y="-16" type="line"/>
      <point x="188" y="-16" type="line"/>
      <point x="90" y="67" type="line"/>
      <point x="90" y="180" type="line"/>
      <point x="192" y="320" type="line"/>
      <point x="431" y="384" type="line"/>
      <point x="563" y="465" type="line"/>
      <point x="539" y="561" type="line"/>
      <point x="577" y="548" type="line"/>
      <point x="590" y="589" type="line"/>
      <point x="622" y="561" type="line"/>
    </contour>
  </outline>
</glyph>
