<?xml version="1.0" encoding="UTF-8"?>
<glyph name="uni04DD" format="1">
  <advance width="600"/>
  <unicode hex="04DD"/>
  <outline>
    <component base="afii10072"/>
    <component base="dieresis" xOffset="-7"/>
  </outline>
</glyph>
