<?xml version="1.0" encoding="UTF-8"?>
<glyph name="dagger" format="1">
  <advance width="394"/>
  <unicode hex="2020"/>
  <outline>
    <contour>
      <point x="217" y="376" type="line"/>
      <point x="217" y="-36" type="line" smooth="yes"/>
      <point x="217" y="-63"/>
      <point x="197" y="-63" type="qcurve" smooth="yes"/>
      <point x="176" y="-63"/>
      <point x="176" y="-36" type="qcurve" smooth="yes"/>
      <point x="176" y="376" type="line"/>
      <point x="48" y="376" type="line" smooth="yes"/>
      <point x="21" y="376"/>
      <point x="21" y="396" type="qcurve" smooth="yes"/>
      <point x="21" y="407"/>
      <point x="31" y="414" type="qcurve" smooth="yes"/>
      <point x="32" y="415"/>
      <point x="41" y="417" type="qcurve" smooth="yes"/>
      <point x="45" y="417"/>
      <point x="48" y="418" type="qcurve"/>
      <point x="176" y="418" type="line"/>
      <point x="176" y="577" type="line" smooth="yes"/>
      <point x="176" y="604"/>
      <point x="197" y="604" type="qcurve" smooth="yes"/>
      <point x="217" y="604"/>
      <point x="217" y="577" type="qcurve" smooth="yes"/>
      <point x="217" y="417" type="line"/>
      <point x="345" y="417" type="line" smooth="yes"/>
      <point x="373" y="417"/>
      <point x="373" y="396" type="qcurve" smooth="yes"/>
      <point x="373" y="376"/>
      <point x="345" y="376" type="qcurve" smooth="yes"/>
    </contour>
  </outline>
</glyph>
