<?xml version="1.0" encoding="UTF-8"?>
<glyph name="lcaron" format="1">
  <advance width="416"/>
  <unicode hex="013E"/>
  <outline>
    <component base="commaaccent" xOffset="30" yOffset="676"/>
    <component base="l" xOffset="27"/>
  </outline>
</glyph>
