<?xml version="1.0" encoding="UTF-8"?>
<glyph name="n" format="1">
  <advance width="523"/>
  <unicode hex="006E"/>
  <outline>
    <contour>
      <point x="128" y="417" type="line"/>
      <point x="128" y="348" type="line"/>
      <point x="171" y="396"/>
      <point x="237" y="431"/>
      <point x="284" y="431" type="qcurve" smooth="yes"/>
      <point x="351" y="431"/>
      <point x="441" y="353"/>
      <point x="441" y="295" type="qcurve" smooth="yes"/>
      <point x="441" y="0" type="line"/>
      <point x="400" y="0" type="line"/>
      <point x="400" y="288" type="line" smooth="yes"/>
      <point x="400" y="332"/>
      <point x="362" y="364" type="qcurve" smooth="yes"/>
      <point x="331" y="390"/>
      <point x="280" y="390" type="qcurve" smooth="yes"/>
      <point x="225" y="390"/>
      <point x="185" y="357" type="qcurve"/>
      <point x="167" y="344"/>
      <point x="128" y="294" type="qcurve"/>
      <point x="128" y="0" type="line"/>
      <point x="87" y="0" type="line"/>
      <point x="87" y="417" type="line"/>
    </contour>
  </outline>
</glyph>
