<?xml version="1.0" encoding="UTF-8"?>
<glyph name="tilde" format="1">
  <advance width="470"/>
  <unicode hex="02DC"/>
  <outline>
    <contour>
      <point x="377" y="603"/>
      <point x="389" y="591"/>
      <point x="389" y="583" type="qcurve" smooth="yes"/>
      <point x="389" y="573"/>
      <point x="367" y="552" type="qcurve" smooth="yes"/>
      <point x="331" y="516"/>
      <point x="298" y="516" type="qcurve" smooth="yes"/>
      <point x="269" y="516"/>
      <point x="217" y="547" type="qcurve"/>
      <point x="191" y="564"/>
      <point x="174" y="564" type="qcurve" smooth="yes"/>
      <point x="159" y="564"/>
      <point x="138" y="550"/>
      <point x="116" y="527" type="qcurve"/>
      <point x="110" y="519"/>
      <point x="99" y="519" type="qcurve" smooth="yes"/>
      <point x="91" y="519"/>
      <point x="79" y="530"/>
      <point x="79" y="538" type="qcurve" smooth="yes"/>
      <point x="79" y="549"/>
      <point x="98" y="568" type="qcurve"/>
      <point x="138" y="605"/>
      <point x="173" y="605" type="qcurve" smooth="yes"/>
      <point x="198" y="605"/>
      <point x="237" y="582" type="qcurve"/>
      <point x="282" y="557"/>
      <point x="296" y="557" type="qcurve" smooth="yes"/>
      <point x="309" y="557"/>
      <point x="330" y="572"/>
      <point x="353" y="595" type="qcurve" smooth="yes"/>
      <point x="361" y="603"/>
    </contour>
  </outline>
</glyph>
