<?xml version="1.0" encoding="UTF-8"?>
<glyph name="uni1EF7" format="1">
  <advance width="554"/>
  <unicode hex="1EF7"/>
  <outline>
    <contour>
      <point x="370" y="602" type="qcurve" smooth="yes"/>
      <point x="370" y="577"/>
      <point x="335" y="543"/>
      <point x="291" y="526" type="qcurve"/>
      <point x="291" y="518" type="line" smooth="yes"/>
      <point x="291" y="497"/>
      <point x="272" y="497" type="qcurve" smooth="yes"/>
      <point x="251" y="497"/>
      <point x="251" y="518" type="qcurve" smooth="yes"/>
      <point x="251" y="554" type="line"/>
      <point x="332" y="580"/>
      <point x="332" y="602" type="qcurve" smooth="yes"/>
      <point x="332" y="616"/>
      <point x="298" y="634"/>
      <point x="248" y="634"/>
      <point x="219" y="624" type="qcurve"/>
      <point x="219" y="617" type="line" smooth="yes"/>
      <point x="219" y="595"/>
      <point x="181" y="595"/>
      <point x="181" y="617" type="qcurve" smooth="yes"/>
      <point x="181" y="652" type="line"/>
      <point x="238" y="674"/>
      <point x="275" y="674" type="qcurve" smooth="yes"/>
      <point x="318" y="674"/>
      <point x="370" y="634"/>
    </contour>
    <contour>
      <point x="504" y="417" type="line"/>
      <point x="208" y="-186" type="line"/>
      <point x="167" y="-186" type="line"/>
      <point x="258" y="0" type="line"/>
      <point x="50" y="417" type="line"/>
      <point x="97" y="417" type="line"/>
      <point x="281" y="45" type="line"/>
      <point x="462" y="417" type="line"/>
    </contour>
  </outline>
</glyph>
