<?xml version="1.0" encoding="UTF-8"?>
<glyph name="uni1EBB" format="1">
  <advance width="537"/>
  <unicode hex="1EBB"/>
  <outline>
    <contour>
      <point x="386" y="602" type="qcurve" smooth="yes"/>
      <point x="386" y="577"/>
      <point x="351" y="543"/>
      <point x="307" y="526" type="qcurve"/>
      <point x="307" y="518" type="line" smooth="yes"/>
      <point x="307" y="497"/>
      <point x="288" y="497" type="qcurve" smooth="yes"/>
      <point x="267" y="497"/>
      <point x="267" y="518" type="qcurve" smooth="yes"/>
      <point x="267" y="554" type="line"/>
      <point x="348" y="580"/>
      <point x="348" y="602" type="qcurve" smooth="yes"/>
      <point x="348" y="616"/>
      <point x="314" y="634"/>
      <point x="264" y="634"/>
      <point x="235" y="624" type="qcurve"/>
      <point x="235" y="617" type="line" smooth="yes"/>
      <point x="235" y="595"/>
      <point x="197" y="595"/>
      <point x="197" y="617" type="qcurve" smooth="yes"/>
      <point x="197" y="652" type="line"/>
      <point x="254" y="674"/>
      <point x="291" y="674" type="qcurve" smooth="yes"/>
      <point x="334" y="674"/>
      <point x="386" y="634"/>
    </contour>
    <contour>
      <point x="497" y="199" type="qcurve"/>
      <point x="81" y="199" type="line"/>
      <point x="92" y="120"/>
      <point x="202" y="25"/>
      <point x="283" y="25" type="qcurve" smooth="yes"/>
      <point x="330" y="25"/>
      <point x="428" y="55"/>
      <point x="458" y="79" type="qcurve" smooth="yes"/>
      <point x="468" y="86"/>
      <point x="474" y="86" type="qcurve" smooth="yes"/>
      <point x="482" y="86"/>
      <point x="493" y="74"/>
      <point x="493" y="66" type="qcurve" smooth="yes"/>
      <point x="493" y="40"/>
      <point x="350" y="-16"/>
      <point x="282" y="-16" type="qcurve" smooth="yes"/>
      <point x="181" y="-16"/>
      <point x="40" y="120"/>
      <point x="40" y="217" type="qcurve" smooth="yes"/>
      <point x="40" y="308"/>
      <point x="172" y="431"/>
      <point x="268" y="431" type="qcurve" smooth="yes"/>
      <point x="340" y="431"/>
      <point x="453" y="359"/>
      <point x="480" y="297" type="qcurve" smooth="yes"/>
      <point x="497" y="257"/>
    </contour>
    <contour>
      <point x="81" y="240" type="qcurve"/>
      <point x="455" y="240" type="line"/>
      <point x="443" y="308"/>
      <point x="341" y="390"/>
      <point x="195" y="390"/>
      <point x="95" y="309"/>
    </contour>
  </outline>
</glyph>
