<?xml version="1.0" encoding="UTF-8"?>
<glyph name=".notdef" format="1">
  <advance width="336"/>
  <outline>
    <contour>
      <point x="30" y="0" type="line"/>
      <point x="184" y="666" type="line"/>
      <point x="430" y="666" type="line"/>
      <point x="276" y="0" type="line"/>
    </contour>
    <contour>
      <point x="68" y="33" type="line"/>
      <point x="253" y="33" type="line"/>
      <point x="392" y="633" type="line"/>
      <point x="207" y="633" type="line"/>
    </contour>
  </outline>
</glyph>
