<?xml version="1.0" encoding="UTF-8"?>
<glyph name="afii10106" format="1">
  <advance width="522"/>
  <unicode hex="0459"/>
  <outline>
    <contour>
      <point x="268" y="0" type="line"/>
      <point x="356" y="376" type="line"/>
      <point x="238" y="376" type="line"/>
      <point x="166" y="66" type="line"/>
      <point x="160" y="31"/>
      <point x="121" y="0"/>
      <point x="86" y="0" type="qcurve"/>
      <point x="60" y="-2"/>
      <point x="37" y="30"/>
      <point x="43" y="60" type="qcurve"/>
      <point x="50" y="88" type="line" smooth="yes"/>
      <point x="56" y="116"/>
      <point x="77" y="116" type="qcurve" smooth="yes"/>
      <point x="93" y="116"/>
      <point x="86" y="88" type="qcurve" smooth="yes"/>
      <point x="81" y="66" type="line" smooth="yes"/>
      <point x="78" y="54"/>
      <point x="88" y="39"/>
      <point x="97" y="39" type="qcurve" smooth="yes"/>
      <point x="123" y="39"/>
      <point x="130" y="66" type="qcurve" smooth="yes"/>
      <point x="211" y="418" type="line"/>
      <point x="401" y="418" type="line"/>
      <point x="359" y="237" type="line"/>
      <point x="438" y="237" type="line" smooth="yes"/>
      <point x="488" y="237"/>
      <point x="528" y="164"/>
      <point x="504" y="62"/>
      <point x="437" y="0"/>
      <point x="383" y="0" type="qcurve" smooth="yes"/>
    </contour>
    <contour>
      <point x="355" y="376" type="move" smooth="yes"/>
    </contour>
    <contour>
      <point x="314" y="41" type="line"/>
      <point x="389" y="41" type="line" smooth="yes"/>
      <point x="432" y="41"/>
      <point x="470" y="75"/>
      <point x="479" y="113" type="qcurve" smooth="yes"/>
      <point x="498" y="197"/>
      <point x="414" y="197" type="qcurve" smooth="yes"/>
      <point x="350" y="197" type="line"/>
    </contour>
  </outline>
</glyph>
