<?xml version="1.0" encoding="UTF-8"?>
<glyph name="gcircumflex" format="1">
  <advance width="470"/>
  <unicode hex="011D"/>
  <outline>
    <contour>
      <point x="378" y="634" type="line"/>
      <point x="463" y="514" type="line" smooth="yes"/>
      <point x="470" y="502"/>
      <point x="468" y="490" type="qcurve" smooth="yes"/>
      <point x="463" y="469"/>
      <point x="446" y="469" type="qcurve" smooth="yes"/>
      <point x="440" y="469"/>
      <point x="433" y="477" type="qcurve" smooth="yes"/>
      <point x="365" y="574" type="line"/>
      <point x="250" y="477" type="line"/>
      <point x="241" y="468"/>
      <point x="232" y="469" type="qcurve" smooth="yes"/>
      <point x="225" y="469"/>
      <point x="220" y="481"/>
      <point x="222" y="490" type="qcurve" smooth="yes"/>
      <point x="225" y="504"/>
      <point x="238" y="513" type="qcurve"/>
    </contour>
    <contour>
      <point x="469" y="396" type="line"/>
      <point x="505" y="396" type="line"/>
      <point x="406" y="-33" type="line" smooth="yes"/>
      <point x="393" y="-89"/>
      <point x="346" y="-134" type="qcurve" smooth="yes"/>
      <point x="290" y="-186"/>
      <point x="229" y="-186" type="qcurve" smooth="yes"/>
      <point x="131" y="-186" type="line" smooth="yes"/>
      <point x="108" y="-186"/>
      <point x="113" y="-165" type="qcurve" smooth="yes"/>
      <point x="118" y="-145"/>
      <point x="140" y="-145" type="qcurve" smooth="yes"/>
      <point x="240" y="-145" type="line" smooth="yes"/>
      <point x="284" y="-145"/>
      <point x="360" y="-76"/>
      <point x="372" y="-26" type="qcurve" smooth="yes"/>
      <point x="400" y="98" type="line"/>
      <point x="321" y="3"/>
      <point x="231" y="3" type="qcurve" smooth="yes"/>
      <point x="158" y="3"/>
      <point x="82" y="123"/>
      <point x="121" y="291"/>
      <point x="252" y="410"/>
      <point x="325" y="410" type="qcurve" smooth="yes"/>
      <point x="416" y="410"/>
      <point x="450" y="315" type="qcurve"/>
    </contour>
    <contour>
      <point x="319" y="369" type="qcurve" smooth="yes"/>
      <point x="259" y="369"/>
      <point x="154" y="275"/>
      <point x="122" y="139"/>
      <point x="184" y="44"/>
      <point x="304" y="44"/>
      <point x="410" y="138"/>
      <point x="425" y="205" type="qcurve" smooth="yes"/>
      <point x="441" y="275"/>
      <point x="380" y="369"/>
    </contour>
  </outline>
</glyph>
