<?xml version="1.0" encoding="UTF-8"?>
<glyph name="hbar" format="1">
  <advance width="571"/>
  <unicode hex="0127"/>
  <outline>
    <component base="h" xOffset="40"/>
    <component base="macron" xOffset="-116" yOffset="-67"/>
  </outline>
</glyph>
