<?xml version="1.0" encoding="UTF-8"?>
<glyph name="ycircumflex" format="1">
  <advance width="536"/>
  <unicode hex="0177"/>
  <outline>
    <component base="circumflex" xOffset="35"/>
    <component base="y" xOffset="-9"/>
  </outline>
</glyph>
