<?xml version="1.0" encoding="UTF-8"?>
<glyph name="Aring" format="1">
  <advance width="578"/>
  <unicode hex="00C5"/>
  <outline>
    <component base="A" xOffset="-27"/>
    <component base="ring" xOffset="71" yOffset="150"/>
  </outline>
</glyph>
