<?xml version="1.0" encoding="UTF-8"?>
<glyph name="ebreve" format="1">
  <advance width="575"/>
  <unicode hex="0115"/>
  <outline>
    <contour>
      <point x="167" y="613" type="qcurve" smooth="yes"/>
      <point x="181" y="613"/>
      <point x="187" y="593" type="qcurve"/>
      <point x="190" y="564"/>
      <point x="249" y="525"/>
      <point x="291" y="525" type="qcurve" smooth="yes"/>
      <point x="332" y="525"/>
      <point x="392" y="565"/>
      <point x="395" y="593" type="qcurve" smooth="yes"/>
      <point x="398" y="613"/>
      <point x="415" y="613" type="qcurve" smooth="yes"/>
      <point x="435" y="613"/>
      <point x="435" y="591" type="qcurve" smooth="yes"/>
      <point x="435" y="546"/>
      <point x="352" y="484"/>
      <point x="291" y="484" type="qcurve" smooth="yes"/>
      <point x="231" y="484"/>
      <point x="147" y="546"/>
      <point x="147" y="591" type="qcurve" smooth="yes"/>
      <point x="147" y="613"/>
    </contour>
    <contour>
      <point x="517" y="200" type="qcurve"/>
      <point x="101" y="200" type="line"/>
      <point x="111" y="120"/>
      <point x="222" y="25"/>
      <point x="305" y="25" type="qcurve" smooth="yes"/>
      <point x="352" y="25"/>
      <point x="449" y="55"/>
      <point x="479" y="79" type="qcurve" smooth="yes"/>
      <point x="489" y="86"/>
      <point x="495" y="86" type="qcurve" smooth="yes"/>
      <point x="503" y="86"/>
      <point x="515" y="74"/>
      <point x="515" y="66" type="qcurve" smooth="yes"/>
      <point x="515" y="40"/>
      <point x="372" y="-16"/>
      <point x="303" y="-16" type="qcurve" smooth="yes"/>
      <point x="201" y="-16"/>
      <point x="61" y="120"/>
      <point x="61" y="217" type="qcurve" smooth="yes"/>
      <point x="61" y="308"/>
      <point x="192" y="431"/>
      <point x="289" y="431" type="qcurve" smooth="yes"/>
      <point x="361" y="431"/>
      <point x="474" y="360"/>
      <point x="501" y="297" type="qcurve" smooth="yes"/>
      <point x="517" y="259"/>
    </contour>
    <contour>
      <point x="101" y="241" type="qcurve"/>
      <point x="477" y="241" type="line"/>
      <point x="463" y="309"/>
      <point x="362" y="390"/>
      <point x="216" y="390"/>
      <point x="116" y="310"/>
    </contour>
  </outline>
</glyph>
