<?xml version="1.0" encoding="UTF-8"?>
<glyph name="ncommaaccent" format="1">
  <advance width="563"/>
  <unicode hex="0146"/>
  <outline>
    <component base="commaaccent" xOffset="-43"/>
    <component base="n" xOffset="17"/>
  </outline>
</glyph>
