<?xml version="1.0" encoding="UTF-8"?>
<glyph name="S" format="1">
  <advance width="586"/>
  <unicode hex="0053"/>
  <outline>
    <contour>
      <point x="136" y="35" type="qcurve" smooth="yes"/>
      <point x="68" y="86"/>
      <point x="68" y="149" type="qcurve" smooth="yes"/>
      <point x="68" y="186"/>
      <point x="99" y="186" type="qcurve" smooth="yes"/>
      <point x="113" y="186"/>
      <point x="128" y="167"/>
      <point x="129" y="152" type="qcurve" smooth="yes"/>
      <point x="131" y="108"/>
      <point x="176" y="77" type="qcurve"/>
      <point x="226" y="45"/>
      <point x="297" y="45" type="qcurve" smooth="yes"/>
      <point x="322" y="45"/>
      <point x="365" y="52"/>
      <point x="403" y="67"/>
      <point x="417" y="78" type="qcurve" smooth="yes"/>
      <point x="428" y="86"/>
      <point x="444" y="104"/>
      <point x="455" y="125"/>
      <point x="460" y="147"/>
      <point x="460" y="159" type="qcurve" smooth="yes"/>
      <point x="460" y="184"/>
      <point x="440" y="220"/>
      <point x="420" y="232" type="qcurve" smooth="yes"/>
      <point x="391" y="249"/>
      <point x="297" y="263" type="qcurve" smooth="yes"/>
      <point x="189" y="279"/>
      <point x="147" y="309" type="qcurve"/>
      <point x="119" y="327"/>
      <point x="91" y="382"/>
      <point x="91" y="417" type="qcurve" smooth="yes"/>
      <point x="91" y="485"/>
      <point x="147" y="531" type="qcurve"/>
      <point x="204" y="576"/>
      <point x="295" y="576" type="qcurve" smooth="yes"/>
      <point x="328" y="576"/>
      <point x="385" y="565"/>
      <point x="409" y="554" type="qcurve"/>
      <point x="431" y="542"/>
      <point x="449" y="525" type="qcurve" smooth="yes"/>
      <point x="502" y="474"/>
      <point x="502" y="423" type="qcurve" smooth="yes"/>
      <point x="502" y="386"/>
      <point x="472" y="386" type="qcurve" smooth="yes"/>
      <point x="467" y="386"/>
      <point x="459" y="388"/>
      <point x="452" y="393"/>
      <point x="447" y="399"/>
      <point x="443" y="406"/>
      <point x="441" y="415"/>
      <point x="441" y="419" type="qcurve" smooth="yes"/>
      <point x="440" y="440"/>
      <point x="420" y="473"/>
      <point x="401" y="487" type="qcurve"/>
      <point x="359" y="515"/>
      <point x="298" y="515" type="qcurve" smooth="yes"/>
      <point x="266" y="515"/>
      <point x="213" y="500"/>
      <point x="192" y="485" type="qcurve" smooth="yes"/>
      <point x="173" y="471"/>
      <point x="155" y="435"/>
      <point x="155" y="414" type="qcurve" smooth="yes"/>
      <point x="155" y="399"/>
      <point x="163" y="376"/>
      <point x="178" y="356"/>
      <point x="190" y="349" type="qcurve" smooth="yes"/>
      <point x="225" y="329"/>
      <point x="310" y="316" type="qcurve" smooth="yes"/>
      <point x="419" y="300"/>
      <point x="457" y="276" type="qcurve"/>
      <point x="524" y="237"/>
      <point x="524" y="155" type="qcurve" smooth="yes"/>
      <point x="524" y="136"/>
      <point x="516" y="102"/>
      <point x="501" y="71"/>
      <point x="478" y="43"/>
      <point x="462" y="31" type="qcurve" smooth="yes"/>
      <point x="401" y="-16"/>
      <point x="298" y="-16" type="qcurve" smooth="yes"/>
      <point x="204" y="-16"/>
    </contour>
  </outline>
</glyph>
