<?xml version="1.0" encoding="UTF-8"?>
<glyph name="uring" format="1">
  <advance width="525"/>
  <unicode hex="016F"/>
  <outline>
    <contour>
      <point x="263" y="661" type="qcurve" smooth="yes"/>
      <point x="302" y="661"/>
      <point x="356" y="608"/>
      <point x="356" y="569" type="qcurve" smooth="yes"/>
      <point x="356" y="533"/>
      <point x="301" y="480"/>
      <point x="225" y="480"/>
      <point x="170" y="534"/>
      <point x="170" y="608"/>
      <point x="225" y="661"/>
    </contour>
    <contour>
      <point x="238" y="628"/>
      <point x="203" y="594"/>
      <point x="203" y="571" type="qcurve" smooth="yes"/>
      <point x="203" y="547"/>
      <point x="238" y="513"/>
      <point x="288" y="513"/>
      <point x="323" y="547"/>
      <point x="323" y="570" type="qcurve" smooth="yes"/>
      <point x="323" y="594"/>
      <point x="288" y="628"/>
    </contour>
    <contour>
      <point x="443" y="417" type="line"/>
      <point x="443" y="0" type="line"/>
      <point x="402" y="0" type="line"/>
      <point x="402" y="66" type="line"/>
      <point x="318" y="-16"/>
      <point x="220" y="-16" type="qcurve" smooth="yes"/>
      <point x="160" y="-16"/>
      <point x="87" y="56"/>
      <point x="87" y="115" type="qcurve" smooth="yes"/>
      <point x="87" y="417" type="line"/>
      <point x="128" y="417" type="line"/>
      <point x="128" y="115" type="line" smooth="yes"/>
      <point x="128" y="77"/>
      <point x="181" y="25"/>
      <point x="219" y="25" type="qcurve" smooth="yes"/>
      <point x="319" y="25"/>
      <point x="402" y="115" type="qcurve"/>
      <point x="402" y="417" type="line"/>
    </contour>
  </outline>
</glyph>
