<?xml version="1.0" encoding="UTF-8"?>
<glyph name="E" format="1">
  <advance width="515"/>
  <unicode hex="0045"/>
  <outline>
    <contour>
      <point x="554" y="522" type="line"/>
      <point x="243" y="522" type="line"/>
      <point x="195" y="313" type="line"/>
      <point x="368" y="313" type="line"/>
      <point x="359" y="272" type="line"/>
      <point x="186" y="272" type="line"/>
      <point x="132" y="41" type="line"/>
      <point x="462" y="41" type="line"/>
      <point x="453" y="0" type="line"/>
      <point x="85" y="0" type="line"/>
      <point x="215" y="563" type="line"/>
      <point x="563" y="563" type="line"/>
    </contour>
  </outline>
</glyph>
