<?xml version="1.0" encoding="UTF-8"?>
<glyph name="hungarumlaut" format="1">
  <advance width="401"/>
  <unicode hex="02DD"/>
  <outline>
    <contour>
      <point x="354" y="593" type="qcurve" smooth="yes"/>
      <point x="242" y="499" type="line" smooth="yes"/>
      <point x="231" y="490"/>
      <point x="223" y="490" type="qcurve" smooth="yes"/>
      <point x="216" y="490"/>
      <point x="207" y="502"/>
      <point x="209" y="511" type="qcurve" smooth="yes"/>
      <point x="211" y="519"/>
      <point x="225" y="530" type="qcurve" smooth="yes"/>
      <point x="337" y="624" type="line" smooth="yes"/>
      <point x="347" y="633"/>
      <point x="356" y="633" type="qcurve" smooth="yes"/>
      <point x="363" y="633"/>
      <point x="372" y="621"/>
      <point x="370" y="612" type="qcurve" smooth="yes"/>
      <point x="368" y="605"/>
    </contour>
    <contour>
      <point x="486" y="593" type="qcurve" smooth="yes"/>
      <point x="374" y="499" type="line"/>
      <point x="362" y="490"/>
      <point x="346" y="490"/>
      <point x="338" y="502"/>
      <point x="342" y="520"/>
      <point x="352" y="527" type="qcurve"/>
      <point x="356" y="530" type="line"/>
      <point x="468" y="624" type="line" smooth="yes"/>
      <point x="479" y="633"/>
      <point x="488" y="633" type="qcurve" smooth="yes"/>
      <point x="495" y="633"/>
      <point x="504" y="621"/>
      <point x="502" y="612" type="qcurve" smooth="yes"/>
      <point x="500" y="604"/>
    </contour>
  </outline>
</glyph>
