<?xml version="1.0" encoding="UTF-8"?>
<glyph name="Jcircumflex" format="1">
  <advance width="456"/>
  <unicode hex="0134"/>
  <outline>
    <component base="J" xOffset="-36"/>
    <component base="circumflex" xOffset="40" yOffset="150"/>
  </outline>
</glyph>
