<?xml version="1.0" encoding="UTF-8"?>
<glyph name="uni1EC1" format="1">
  <advance width="464"/>
  <unicode hex="1EC1"/>
  <outline>
    <contour>
      <point x="442" y="812" type="qcurve"/>
      <point x="515" y="706" type="line"/>
      <point x="519" y="698" type="line" smooth="yes"/>
      <point x="522" y="693"/>
      <point x="521" y="686" type="qcurve" smooth="yes"/>
      <point x="519" y="677"/>
      <point x="506" y="664"/>
      <point x="498" y="664" type="qcurve" smooth="yes"/>
      <point x="492" y="664"/>
      <point x="485" y="673" type="qcurve" smooth="yes"/>
      <point x="412" y="779" type="line" smooth="yes"/>
      <point x="404" y="791"/>
      <point x="406" y="800" type="qcurve" smooth="yes"/>
      <point x="408" y="808"/>
      <point x="421" y="821"/>
      <point x="428" y="821" type="qcurve" smooth="yes"/>
      <point x="434" y="821"/>
    </contour>
    <contour>
      <point x="388" y="629" type="line"/>
      <point x="475" y="515" type="line" smooth="yes"/>
      <point x="483" y="503"/>
      <point x="481" y="493" type="qcurve" smooth="yes"/>
      <point x="479" y="485"/>
      <point x="466" y="472"/>
      <point x="459" y="472" type="qcurve" smooth="yes"/>
      <point x="453" y="472"/>
      <point x="445" y="481" type="qcurve" smooth="yes"/>
      <point x="375" y="573" type="line"/>
      <point x="262" y="481" type="line" smooth="yes"/>
      <point x="251" y="473"/>
      <point x="245" y="472" type="qcurve" smooth="yes"/>
      <point x="238" y="472"/>
      <point x="231" y="485"/>
      <point x="233" y="493" type="qcurve" smooth="yes"/>
      <point x="236" y="505"/>
      <point x="249" y="514" type="qcurve"/>
    </contour>
    <contour>
      <point x="470" y="188" type="qcurve"/>
      <point x="114" y="188" type="line"/>
      <point x="106" y="114"/>
      <point x="180" y="25"/>
      <point x="250" y="25" type="qcurve" smooth="yes"/>
      <point x="290" y="25"/>
      <point x="380" y="53"/>
      <point x="411" y="76" type="qcurve" smooth="yes"/>
      <point x="421" y="83"/>
      <point x="426" y="82" type="qcurve" smooth="yes"/>
      <point x="433" y="82"/>
      <point x="440" y="71"/>
      <point x="438" y="63" type="qcurve" smooth="yes"/>
      <point x="432" y="38"/>
      <point x="297" y="-16"/>
      <point x="239" y="-16" type="qcurve" smooth="yes"/>
      <point x="152" y="-16"/>
      <point x="61" y="114"/>
      <point x="82" y="206" type="qcurve" smooth="yes"/>
      <point x="102" y="293"/>
      <point x="243" y="410"/>
      <point x="325" y="410" type="qcurve" smooth="yes"/>
      <point x="387" y="410"/>
      <point x="468" y="341"/>
      <point x="477" y="282" type="qcurve" smooth="yes"/>
      <point x="483" y="244"/>
    </contour>
    <contour>
      <point x="124" y="229" type="qcurve"/>
      <point x="444" y="229" type="line"/>
      <point x="448" y="293"/>
      <point x="379" y="369"/>
      <point x="254" y="369"/>
      <point x="151" y="294"/>
    </contour>
  </outline>
</glyph>
