<?xml version="1.0" encoding="UTF-8"?>
<glyph name="uni1ECB" format="1">
  <advance width="238"/>
  <unicode hex="1ECB"/>
  <outline>
    <component base="dotaccent" xOffset="-351" yOffset="-718"/>
    <component base="i"/>
  </outline>
</glyph>
