<?xml version="1.0" encoding="UTF-8"?>
<glyph name="uni1EE1" format="1">
  <advance width="465"/>
  <unicode hex="1EE1"/>
  <outline>
    <contour>
      <point x="431" y="327" type="qcurve"/>
      <point x="430" y="332"/>
      <point x="439" y="330" type="qcurve"/>
      <point x="459" y="328"/>
      <point x="459" y="329" type="qcurve" smooth="yes"/>
      <point x="507" y="355"/>
      <point x="518" y="404" type="qcurve" smooth="yes"/>
      <point x="526" y="441"/>
      <point x="498" y="455" type="qcurve"/>
      <point x="476" y="455" type="line" smooth="yes"/>
      <point x="456" y="455"/>
      <point x="446" y="415"/>
      <point x="466" y="415" type="qcurve" smooth="yes"/>
      <point x="477" y="415" type="line"/>
      <point x="480" y="411"/>
      <point x="478" y="401" type="qcurve" smooth="yes"/>
      <point x="471" y="371"/>
      <point x="440" y="360" type="qcurve"/>
      <point x="439" y="362"/>
      <point x="438" y="358" type="qcurve" smooth="yes"/>
      <point x="437" y="355"/>
      <point x="436" y="345" type="qcurve" smooth="yes"/>
      <point x="434" y="327"/>
    </contour>
    <contour>
      <point x="499" y="632"/>
      <point x="507" y="620"/>
      <point x="505" y="612" type="qcurve" smooth="yes"/>
      <point x="503" y="602"/>
      <point x="479" y="580" type="qcurve" smooth="yes"/>
      <point x="440" y="543"/>
      <point x="411" y="543" type="qcurve" smooth="yes"/>
      <point x="386" y="543"/>
      <point x="349" y="575" type="qcurve"/>
      <point x="331" y="593"/>
      <point x="317" y="593" type="qcurve" smooth="yes"/>
      <point x="304" y="593"/>
      <point x="282" y="577"/>
      <point x="258" y="554" type="qcurve"/>
      <point x="251" y="546"/>
      <point x="242" y="546" type="qcurve" smooth="yes"/>
      <point x="235" y="546"/>
      <point x="227" y="558"/>
      <point x="229" y="566" type="qcurve" smooth="yes"/>
      <point x="232" y="577"/>
      <point x="253" y="597" type="qcurve"/>
      <point x="296" y="634"/>
      <point x="325" y="634" type="qcurve" smooth="yes"/>
      <point x="346" y="634"/>
      <point x="374" y="610" type="qcurve"/>
      <point x="406" y="584"/>
      <point x="419" y="584" type="qcurve" smooth="yes"/>
      <point x="430" y="584"/>
      <point x="452" y="600"/>
      <point x="477" y="624" type="qcurve" smooth="yes"/>
      <point x="485" y="632"/>
    </contour>
    <contour>
      <point x="326" y="410" type="qcurve" smooth="yes"/>
      <point x="409" y="410"/>
      <point x="493" y="285"/>
      <point x="472" y="195" type="qcurve" smooth="yes"/>
      <point x="452" y="107"/>
      <point x="308" y="-16"/>
      <point x="227" y="-16" type="qcurve" smooth="yes"/>
      <point x="145" y="-16"/>
      <point x="60" y="108"/>
      <point x="80" y="198" type="qcurve" smooth="yes"/>
      <point x="100" y="286"/>
      <point x="244" y="410"/>
    </contour>
    <contour>
      <point x="316" y="369" type="qcurve" smooth="yes"/>
      <point x="249" y="369"/>
      <point x="133" y="269"/>
      <point x="100" y="126"/>
      <point x="170" y="25"/>
      <point x="237" y="25" type="qcurve" smooth="yes"/>
      <point x="303" y="25"/>
      <point x="420" y="125"/>
      <point x="436" y="195" type="qcurve" smooth="yes"/>
      <point x="453" y="269"/>
      <point x="384" y="369"/>
    </contour>
  </outline>
</glyph>
